<?xml version="1.0" encoding="UTF-8"?>
<svg width="90px" height="43px" viewBox="0 0 90 43" version="1.1" xmlns="http://www.w3.org/2000/svg" xmlns:xlink="http://www.w3.org/1999/xlink">
    <!-- Generator: Sketch 42 (36781) - http://www.bohemiancoding.com/sketch -->
    <title>logo</title>
    <desc>Created with Sketch.</desc>
    <defs></defs>
    <g id="Symbols" stroke="none" stroke-width="1" fill="none" fill-rule="evenodd">
        <g id="Header_wo_picture?alt2" transform="translate(-16.000000, -17.000000)">
            <g id="logo" transform="translate(16.000000, 17.000000)">
                <g>
                    <path d="M49.7956304,11.2855815 C49.7956304,10.2423354 50.1680217,9.35190462 50.9128043,8.61362769 C51.6758478,7.85815077 52.5712826,7.48041231 53.600413,7.48041231 C54.6647609,7.48041231 55.5601957,7.85815077 56.2873696,8.61362769 C57.0328043,9.35190462 57.4051957,10.2515969 57.4051957,11.3120431 C57.4051957,12.3923354 57.0328043,13.3098892 56.2873696,14.0653662 C55.5067174,14.8036431 54.6112826,15.1714585 53.600413,15.1714585 C52.5536739,15.1714585 51.6582391,14.79372 50.9128043,14.0382431 C50.1680217,13.2827662 49.7956304,12.3652123 49.7956304,11.2855815 Z M38.6741087,11.2855815 C38.6741087,10.2423354 39.0465,9.35190462 39.7919348,8.61362769 C40.5367174,7.85815077 41.4321522,7.48041231 42.4788913,7.48041231 C43.5256304,7.48041231 44.4210652,7.85815077 45.1665,8.61362769 C45.9112826,9.35190462 46.2836739,10.2515969 46.2836739,11.3120431 C46.2836739,12.3923354 45.9112826,13.3098892 45.1665,14.0653662 C44.3851957,14.8036431 43.4897609,15.1714585 42.4788913,15.1714585 C41.4145435,15.1714585 40.5099783,14.79372 39.7651957,14.0382431 C39.0373696,13.2463815 38.6741087,12.3288277 38.6741087,11.2855815 Z M43.9286739,19.3034277 L43.9286739,32.0605354 C43.9286739,35.7426585 45.3608478,37.5830585 48.2258478,37.5830585 C51.0908478,37.5830585 52.5230217,35.7426585 52.5230217,32.0605354 L52.5230217,19.3034277 L57.5858478,19.3034277 L57.5858478,32.1749815 C57.5858478,33.9551815 57.3680217,35.4912738 56.9330217,36.7845815 C56.5130217,37.9409508 55.7858478,38.9835354 54.7508478,39.9116738 C53.0408478,41.4173354 50.8658478,42.1708277 48.2258478,42.1708277 C45.6008478,42.1708277 43.4336739,41.4173354 41.7243261,39.9116738 C40.6736739,38.9835354 39.9315,37.9409508 39.4965,36.7845815 C39.0765,35.7499354 38.8665,34.2131815 38.8665,32.1749815 L38.8665,19.3034277 L43.9286739,19.3034277 Z" id="Fill-1" fill="#08CEE6"></path>
                    <path d="M19.7900217,18.9003523 L19.7900217,26.3658138 C18.5261087,24.8019369 17.3939348,23.72826 16.3935,23.1454446 C15.4087174,22.5460908 14.2517609,22.2464138 12.9226304,22.2464138 C10.8382826,22.2464138 9.10741304,22.9873369 7.72871739,24.4685215 C6.35067391,25.9497062 5.66132609,27.8059831 5.66132609,30.0360292 C5.66132609,32.3163523 6.3258913,34.1891677 7.65502174,35.6538138 C9.00045652,37.1191215 10.7150217,37.8507831 12.7993696,37.8507831 C14.1285,37.8507831 15.3017609,37.5597062 16.3191522,36.9768908 C17.3039348,36.4119369 18.4608913,35.3131215 19.7900217,33.6817677 L19.7900217,41.0969523 C17.5413261,42.27846 15.2932826,42.8692138 13.0458913,42.8692138 C9.33697826,42.8692138 6.23523913,41.6546292 3.74132609,39.2247985 C1.24676087,36.7771062 -0.000195652174,33.7399831 -0.000195652174,30.1107831 C-0.000195652174,26.4829062 1.26371739,23.4199831 3.7908913,20.9233369 C6.31741304,18.4260292 9.41915217,17.1777062 13.0948043,17.1777062 C15.4576304,17.1777062 17.6893696,17.7525831 19.7900217,18.9003523" id="Fill-3" fill="#FFF9F9"></path>
                    <polygon id="Fill-6" fill="#FFF9F9" points="25.1556522 42.1702323 30.693913 42.1702323 30.693913 -0.000198461538 25.1556522 -0.000198461538"></polygon>
                    <path d="M83.8852174,30.1858677 C83.8852174,27.8559292 83.2617391,25.9579754 82.0147826,24.4939908 C80.7508696,22.9956062 79.1673913,22.2460831 77.2643478,22.2460831 C75.2295652,22.2460831 73.5723913,22.9704677 72.2921739,24.4185754 C71.0282609,25.8501446 70.3963043,27.71436 70.3963043,30.0112215 C70.3963043,32.3748985 71.0197826,34.2642523 72.2673913,35.6792831 C73.5143478,37.1267292 75.1552174,37.8511138 77.19,37.8511138 C79.11,37.8511138 80.7013043,37.1267292 81.9658696,35.6792831 C83.2454348,34.2146369 83.8852174,32.3828369 83.8852174,30.1858677 L83.8852174,30.1858677 Z M70.7171739,-0.000132307692 L70.7171739,20.6729446 C72.9319565,18.3436677 75.4428261,17.1780369 78.2484783,17.1780369 C81.4806522,17.1780369 84.1721739,18.4012215 86.3217391,20.8482523 C88.4713043,23.2787446 89.5467391,26.3079292 89.5467391,29.9364677 C89.5467391,33.6814369 88.4641304,36.7774369 86.2976087,39.2244677 C84.1473913,41.65496 81.4317391,42.8695446 78.15,42.8695446 C75.3769565,42.8695446 72.8986957,41.7879292 70.7171739,39.6240369 L70.7171739,42.1702985 L65.1782609,42.1702985 L65.1782609,-0.000132307692 L70.7171739,-0.000132307692 Z" id="Fill-8" fill="#FFF9F9"></path>
                </g>
            </g>
        </g>
    </g>
</svg>